﻿{
  "SiteSettings": [
    {
      "Id": 5,
      "Name": "CacheTime",
      "Value": 5,
      "Type": "Integer",
      "IsActive": true,
      "ApplicationName": "sitename.com"
    },
    {
      "Id": 3,
      "Name": "Title",
      "Value": 5,
      "Type": "String",
      "IsActive": true,
      "ApplicationName": "sitename.com"
    },
    {
      "Id": 5,
      "Name": "SiteKey",
      "Type": "String",
      "Value": "RootKey34234234",
      "IsActive": true,
      "ApplicationName": "sitename.com"
    }
  ]
  
}

